MGI Report Readers • mgi.report.reader
…
Example

library(mgi.report.reader)

base_url <- "https://www.informatics.jax.org/downloads/reports"

# Import the Mouse Genetic Markers (including withdrawn marker symbols) Report
read_report(file.path(base_url, "MRK_List1.rpt"), "MRK_List1")
#> Warning: One or more parsing issues, call `problems()` on your data frame for details,
#> e.g.:
#>   dat <- vroom(...)
#>   problems(dat)
#> # A tibble: 753,059 × 12
#>    marker_id   marker_symbol marker_name marker_type status cM_pos chr     start
#>    <chr>       <chr>         <chr>       <fct>       <fct>   <dbl> <fct>   <int>
#>  1 MGI:1341858 03B03F        DNA segmen… BAC/YAC end O        NA   5     NA     
#>  2 MGI:1341869 03B03R        DNA segmen… BAC/YAC end O        NA   5     NA     
#>  3 MGI:1337005 03.MMHAP34FR… DNA segmen… DNA Segment O        NA   11    NA     
#>  4 <NA>        0610005A07Rik withdrawn,… Gene        W        NA   3     NA     
#>  5 MGI:1918911 0610005C13Rik RIKEN cDNA… Gene        O        29.4 7      4.52e7
#>  6 <NA>        0610005K03Rik withdrawn,… Gene        W        NA   15    NA     
#>  7 <NA>        0610005M07Rik withdrawn,… Gene        W        NA   6     NA     
#>  8 <NA>        0610006A03Rik withdrawn,… Gene        W        NA   4     NA     
#>  9 <NA>        0610006A11Rik withdrawn,… Gene        W        NA   <NA>  NA     
#> 10 <NA>        0610006C01Rik withdrawn,… Gene        W        NA   <NA>  NA     
#> # ℹ 753,049 more rows
#> # ℹ 4 more variables: end <int>, strand <fct>, feature_type <fct>,
#> #   synonyms <list>

# Import Mouse Genetic Markers (excluding withdrawn marker symbols) Report
read_report(file.path(base_url, "MRK_List2.rpt"), "MRK_List2")
#> Warning: One or more parsing issues, call `problems()` on your data frame for details,
#> e.g.:
#>   dat <- vroom(...)
#>   problems(dat)
#> # A tibble: 682,490 × 12
#>    marker_id   marker_symbol marker_name marker_type status cM_pos chr     start
#>    <chr>       <chr>         <chr>       <fct>       <fct>   <dbl> <fct>   <int>
#>  1 MGI:1341858 03B03F        DNA segmen… BAC/YAC end O        NA   5     NA     
#>  2 MGI:1341869 03B03R        DNA segmen… BAC/YAC end O        NA   5     NA     
#>  3 MGI:1337005 03.MMHAP34FR… DNA segmen… DNA Segment O        NA   11    NA     
#>  4 MGI:1918911 0610005C13Rik RIKEN cDNA… Gene        O        29.4 7      4.52e7
#>  5 MGI:1923503 0610006L08Rik RIKEN cDNA… Gene        O        NA   7      7.45e7
#>  6 MGI:1925547 0610008J02Rik RIKEN cDNA… Gene        O        NA   <NA>  NA     
#>  7 MGI:3698435 0610009E02Rik RIKEN cDNA… Gene        O        18.9 2      2.63e7
#>  8 MGI:1918921 0610009F21Rik RIKEN cDNA… Gene        O        NA   16     9.17e7
#>  9 MGI:1918931 0610009K14Rik RIKEN cDNA… Gene        O        NA   4      1.36e7
#> 10 MGI:1914088 0610009L18Rik RIKEN cDNA… Gene        O        84.1 11     1.20e8
#> # ℹ 682,480 more rows
#> # ℹ 4 more variables: end <int>, strand <fct>, feature_type <fct>,
#> #   synonyms <list>

# Import the MGI Marker Coordinates' Report
read_report(file.path(base_url, "MGI_MRK_Coord.rpt"), "MGI_MRK_Coord")
#> # A tibble: 638,989 × 12
#>    marker_id marker_type marker_symbol marker_name  genome_assembly chr    start
#>    <chr>     <chr>       <chr>         <chr>        <fct>           <fct>  <int>
#>  1 MGI:87853 Gene        a             nonagouti    GRCm39          2     1.55e8
#>  2 MGI:87854 Gene        Pzp           PZP, alpha-… GRCm39          6     1.28e8
#>  3 MGI:87937 Gene        Adrb1         adrenergic … GRCm39          19    5.67e7
#>  4 MGI:87904 Gene        Actb          actin, beta  GRCm39          5     1.43e8
#>  5 MGI:87938 Gene        Adrb2         adrenergic … GRCm39          18    6.23e7
#>  6 MGI:87859 Gene        Abl1          c-abl oncog… GRCm39          2     3.16e7
#>  7 MGI:87939 Gene        Adrb3         adrenergic … GRCm39          8     2.77e7
#>  8 MGI:87862 Gene        Scgb1b27      secretoglob… GRCm39          7     3.37e7
#>  9 MGI:87940 Gene        Grk2          G protein-c… GRCm39          19    4.34e6
#> 10 MGI:87886 Gene        Chrna2        cholinergic… GRCm39          14    6.64e7
#> # ℹ 638,979 more rows
#> # ℹ 5 more variables: end <int>, strand <fct>, feature_type <fct>,
#> #   provider_collection <chr>, provider_display <chr>
…
