Ensembl, NCBI or MGI Biotype Conflicts • mgi.report.reader
…
      Source: vignettes/articles/biotype_conflicts.Rmd
      biotype_conflicts.Rmd

The MGI report MGI_BioTypeConflict.rpt provides markers
for which the biotype classification differs across Ensembl, NCBI or
MGI.

To read this report using the key "biotype_conflicts",
use the following code:

# To read all records (more than 16,000), use `read_report("ensembl_ids")`.
(biotype_conflicts <- read_report(report_key = "biotype_conflicts", n_max = 30L))

## # A tibble: 30 × 6
##    marker_id  marker_symbol database           gene_id        biotype is_mgi_rep
##    <chr>      <chr>         <fct>              <chr>          <chr>   <lgl>     
##  1 MGI:103211 Hoxb3os       NCBI Gene Model    102632302      ncRNA   TRUE      
##  2 MGI:103211 Hoxb3os       Ensembl Gene Model ENSMUSG000000… lncRNA  FALSE     
##  3 MGI:104522 Phxr4         MGI                MGI:104522     protei… FALSE     
##  4 MGI:104522 Phxr4         Ensembl Gene Model ENSMUSG000000… TEC     FALSE     
##  5 MGI:104522 Phxr4         NCBI Gene Model    18689          ncRNA   TRUE      
##  6 MGI:104524 Phxr2         MGI                MGI:104524     protei… FALSE     
##  7 MGI:104524 Phxr2         Ensembl Gene Model ENSMUSG000000… lncRNA  TRUE      
##  8 MGI:104547 Amy2b         MGI                MGI:104547     protei… FALSE     
##  9 MGI:104547 Amy2b         NCBI Gene Model    545562         protei… TRUE      
## 10 MGI:104547 Amy2b         Ensembl Gene Model ENSMUSG000000… unproc… FALSE     
## # ℹ 20 more rows
…
