Ensembl IDs • mgi.report.reader
…
      Source: vignettes/articles/ensembl_ids.Rmd
      ensembl_ids.Rmd

The MGI report MRK_ENSEMBL.rpt provides associations
between MGI genetic markers and Ensembl identifiers.

To read this report using the key "ensembl_ids", use the
following code:

# To read all records (more than 70,000), use `read_report("ensembl_ids")`.
(assoc_ensembl_ids <- read_report(report_key = "ensembl_ids", n_max = 30L))

## # A tibble: 30 × 13
##    marker_id   marker_symbol marker_name   feature_type chromosome  start    end
##    <chr>       <chr>         <chr>         <fct>        <fct>       <int>  <int>
##  1 MGI:1919275 1600012P17Rik RIKEN cDNA 1… lncRNA gene  1          1.59e8 1.59e8
##  2 MGI:1914753 1700001G17Rik RIKEN cDNA 1… lncRNA gene  1          3.37e7 3.37e7
##  3 MGI:1916606 1700003I22Rik RIKEN cDNA 1… lncRNA gene  1          5.61e7 5.61e7
##  4 MGI:1925628 1700006P03Rik RIKEN cDNA 1… lncRNA gene  1          1.37e8 1.37e8
##  5 MGI:1916558 1700007P06Rik RIKEN cDNA 1… lncRNA gene  1          1.87e8 1.87e8
##  6 MGI:1923817 1700012E03Rik RIKEN cDNA 1… lncRNA gene  1          1.20e8 1.20e8
##  7 MGI:1919458 1700016L21Rik RIKEN cDNA 1… lncRNA gene  1          8.04e7 8.05e7
##  8 MGI:1916647 1700019A02Rik RIKEN cDNA 1… protein cod… 1          5.32e7 5.32e7
##  9 MGI:1914330 1700019D03Rik RIKEN cDNA 1… protein cod… 1          5.30e7 5.30e7
## 10 MGI:1922796 1700019P21Rik RIKEN cDNA 1… lncRNA gene  1          1.39e8 1.39e8
## # ℹ 20 more rows
## # ℹ 6 more variables: strand <fct>, genetic_map_pos <dbl>,
## #   ensembl_gen_id <chr>, ensembl_trp_id <list>, ensembl_prt_id <list>,
## #   biotype <list>
…
