GenBank, RefSeq and Ensembl IDs • mgi.report.reader
…
      Source: vignettes/articles/genbank_refseq_ensembl_ids.Rmd
      genbank_refseq_ensembl_ids.Rmd

The MGI report MRK_Sequence.rpt provides associations
between MGI genetic markers and GenBank, RefSeq, Ensembl and UniProtKB
identifiers.

To read this report using the key
"genbank_refseq_ensembl_ids", use the following code:

# To read all records (more than 70,000), use `read_report("genbank_refseq_ensembl_ids")`.
(assoc_to_seq_ids <- read_report(report_key = "genbank_refseq_ensembl_ids", n_max = 30L))

## # A tibble: 30 × 19
##    marker_status marker_type marker_id   marker_symbol marker_name  feature_type
##    <fct>         <fct>       <chr>       <chr>         <chr>        <fct>       
##  1 O             BAC/YAC end MGI:1341858 03B03F        DNA segment… BAC/YAC end 
##  2 O             BAC/YAC end MGI:1341869 03B03R        DNA segment… BAC/YAC end 
##  3 O             Gene        MGI:1918911 0610005C13Rik RIKEN cDNA … lncRNA gene 
##  4 O             Gene        MGI:1923503 0610006L08Rik RIKEN cDNA … lncRNA gene 
##  5 O             Gene        MGI:1925547 0610008J02Rik RIKEN cDNA … lncRNA gene 
##  6 O             Gene        MGI:3698435 0610009E02Rik RIKEN cDNA … lncRNA gene 
##  7 O             Gene        MGI:1918921 0610009F21Rik RIKEN cDNA … lncRNA gene 
##  8 O             Gene        MGI:1918931 0610009K14Rik RIKEN cDNA … lncRNA gene 
##  9 O             Gene        MGI:1914088 0610009L18Rik RIKEN cDNA … lncRNA gene 
## 10 O             Gene        MGI:1918926 0610012D04Rik RIKEN cDNA … lncRNA gene 
## # ℹ 20 more rows
## # ℹ 13 more variables: chromosome <fct>, start <int>, end <int>, strand <fct>,
## #   genetic_map_pos <dbl>, genbank_id <list>, refseq_trp_id <list>,
## #   refseq_prt_id <list>, ensembl_trp_id <list>, ensembl_prt_id <list>,
## #   swiss_prt_id <list>, tr_embl_prt_id <list>, unigene_id <chr>
…
