InterPro Domains • mgi.report.reader
…
      Source: vignettes/articles/interpro_domains.Rmd
      interpro_domains.Rmd

The MGI report MGI_InterProDomains.rpt provides
associations between InterPro domains and MGI genetic markers.

To read this report using the key "interpro_domains",
use the following code:

# To read all records (~ 120,000), use `read_report("interpro_domains")`.
(assoc_interpro_domains <- read_report(report_key = "interpro_domains", n_max = 10000L))

## # A tibble: 10,000 × 4
##    interpro_id interpro_domain marker_id   marker_symbol
##    <chr>       <chr>           <chr>       <chr>        
##  1 IPR000001   Kringle         MGI:1196378 Habp2        
##  2 IPR000001   Kringle         MGI:1347520 Ror1         
##  3 IPR000001   Kringle         MGI:1347521 Ror2         
##  4 IPR000001   Kringle         MGI:1859281 Hgfac        
##  5 IPR000001   Kringle         MGI:1891012 F12          
##  6 IPR000001   Kringle         MGI:1917016 Pik3ip1      
##  7 IPR000001   Kringle         MGI:1920266 Kremen2      
##  8 IPR000001   Kringle         MGI:1933988 Kremen1      
##  9 IPR000001   Kringle         MGI:88380   F2           
## 10 IPR000001   Kringle         MGI:96079   Hgf          
## # ℹ 9,990 more rows
…
