MGI Marker Coordinates • mgi.report.reader
…
      Source: vignettes/articles/marker_coordinates.Rmd
      marker_coordinates.Rmd

The MGI report MGI_MRK_Coord.rpt lists mouse genetic
markers along with their genomic annotations, such as chromosome
position, genome assembly version, and the source of the annotation.

To read this report using the key "marker_coordinates",
use the following code:

# To read all records (more than 600,000), use `read_report("marker_coordinates")`.
(marker_coord <- read_report(report_key = "marker_coordinates", n_max = 300L))

## # A tibble: 300 × 12
##    marker_type       marker_id marker_symbol marker_name feature_type chromosome
##    <fct>             <chr>     <chr>         <chr>       <fct>        <fct>     
##  1 Other Genome Fea… MGI:7712… Rr517         regulatory… enhancer     17        
##  2 Gene              MGI:87854 Pzp           PZP, alpha… protein cod… 6         
##  3 Gene              MGI:87859 Abl1          c-abl onco… protein cod… 2         
##  4 Gene              MGI:87862 Scgb1b27      secretoglo… protein cod… 7         
##  5 Gene              MGI:87863 Scgb2b27      secretoglo… protein cod… 7         
##  6 Gene              MGI:87864 Scgb2b26      secretoglo… protein cod… 7         
##  7 Gene              MGI:87866 Acadl         acyl-Coenz… protein cod… 1         
##  8 Gene              MGI:87867 Acadm         acyl-Coenz… protein cod… 3         
##  9 Gene              MGI:87868 Acads         acyl-Coenz… protein cod… 5         
## 10 Gene              MGI:87870 Acat1         acetyl-Coe… protein cod… 9         
## # ℹ 290 more rows
## # ℹ 6 more variables: start <int>, end <int>, strand <fct>, assembly <fct>,
## #   source <fct>, database <fct>
…
