Mouse Genetic Markers • mgi.report.reader
…
To read any of these reports into R, you can use the helper
read_report(), see the examples below.

Reports

Mouse Genetic Markers

Including withdrawn marker symbols:

(base_url <- "https://www.informatics.jax.org/downloads/reports")
#> [1] "https://www.informatics.jax.org/downloads/reports"

(mrk_symbols1 <- read_report(file.path(base_url, "MRK_List1.rpt"), "MRK_List1", n_max = 30L))
#> # A tibble: 30 × 12
#>    marker_id   marker_symbol marker_name marker_type status cM_pos chr     start
#>    <chr>       <chr>         <chr>       <fct>       <fct>   <dbl> <fct>   <int>
#>  1 MGI:1341858 03B03F        DNA segmen… BAC/YAC end O        NA   5     NA     
#>  2 MGI:1341869 03B03R        DNA segmen… BAC/YAC end O        NA   5     NA     
#>  3 MGI:1337005 03.MMHAP34FR… DNA segmen… DNA Segment O        NA   11    NA     
#>  4 NA          0610005A07Rik withdrawn,… Gene        W        NA   3     NA     
#>  5 MGI:1918911 0610005C13Rik RIKEN cDNA… Gene        O        29.4 7      4.52e7
#>  6 NA          0610005K03Rik withdrawn,… Gene        W        NA   15    NA     
#>  7 NA          0610005M07Rik withdrawn,… Gene        W        NA   6     NA     
#>  8 NA          0610006A03Rik withdrawn,… Gene        W        NA   4     NA     
#>  9 NA          0610006A11Rik withdrawn,… Gene        W        NA   NA    NA     
#> 10 NA          0610006C01Rik withdrawn,… Gene        W        NA   NA    NA     
#> # ℹ 20 more rows
#> # ℹ 4 more variables: end <int>, strand <fct>, feature_type <fct>,
#> #   synonyms <list>

Note that withdrawn genetic markers are indicated by their
status being "W" (withdrawn), and
marker_name typically reads as
"withdrawn, = 2610205H19Rik" if there is a more up-to-date
symbol.

mrk_symbols1 |>
  dplyr::filter(status == "W") |>
  dplyr::select(c("marker_symbol", "marker_name", "marker_type", "status"))
#> # A tibble: 25 × 4
#>    marker_symbol marker_name                marker_type status
#>    <chr>         <chr>                      <fct>       <fct> 
#>  1 0610005A07Rik withdrawn, = Gstm7         Gene        W     
#>  2 0610005K03Rik withdrawn, = Lypdc2        Gene        W     
#>  3 0610005M07Rik withdrawn, = Acn9          Gene        W     
#>  4 0610006A03Rik withdrawn, = Fuca          Gene        W     
#>  5 0610006A11Rik withdrawn, = Blvra         Gene        W     
#>  6 0610006C01Rik withdrawn, = 2610205H19Rik Gene        W     
#>  7 0610006F02Rik withdrawn, = Mettl7b       Gene        W     
#>  8 0610006G05Rik withdrawn, = Sostl         Gene        W     
#>  9 0610006G08Rik withdrawn, = Brp44l        Gene        W     
#> 10 0610006G17Rik withdrawn, = Hirip5        Gene        W     
#> # ℹ 15 more rows
…
