Primer Pairs • mgi.report.reader
…
      Source: vignettes/articles/primers.Rmd
      primers.Rmd

The MGI report PRB_PrimerSeq.rpt provides associations
between MGI genetic markers and primer pairs (probes1).

To read this report using the key "primers", use the
following code:

# To read all records (more than 45,000), use `read_report("primers")`.
(assoc_primers <- read_report(report_key = "primers", n_max = 30L))

## # A tibble: 30 × 10
##    marker_id   marker_symbol marker_name    chromosome genetic_map_pos primer_id
##    <chr>       <chr>         <chr>          <fct>                <dbl> <chr>    
##  1 MGI:1336996 10S           DNA segment, … 17                      NA MGI:1339…
##  2 MGI:1337121 10T           DNA segment, … 17                      NA MGI:1339…
##  3 MGI:1923536 1110006E14Rik RIKEN cDNA 11… 12                      NA MGI:5633…
##  4 MGI:1923536 1110006E14Rik RIKEN cDNA 11… 12                      NA MGI:5633…
##  5 MGI:1923536 1110006E14Rik RIKEN cDNA 11… 12                      NA MGI:5633…
##  6 MGI:2388983 116J6.1       DNA segment, … 7                       NA MGI:2389…
##  7 MGI:1337061 11S           DNA segment, … 17                      NA MGI:1339…
##  8 MGI:1337057 11T           DNA segment, … 17                      NA MGI:1339…
##  9 MGI:1337123 12T           DNA segment, … 17                      NA MGI:1339…
## 10 MGI:1337037 138017-Sp6    DNA segment, … 17                      NA MGI:1338…
## # ℹ 20 more rows
## # ℹ 4 more variables: primer_name <chr>, primer_fwd_seq <chr>,
## #   primer_rev_seq <chr>, primer_amplimer_size <chr>
…
