Sequence Coordinates • mgi.report.reader
…
Transgenes: ~ 30 markers

Cytogenetic Markers: ~ 130 markers

Complex/Cluster/Region: ~ 60 markers

Other Genome Feature: ~ 560,000 markers

To read this report using the key
"sequence_coordinates", use the following code:

# To read all records (more than 2,900,000), use `read_report("sequence_coordinates")`.
(sequence_coord <- read_report(report_key = "sequence_coordinates", n_max = 300L))

## # A tibble: 300 × 9
##    marker_type    marker_id marker_symbol chromosome  start    end strand source
##    <fct>          <chr>     <chr>         <fct>       <int>  <int> <fct>  <fct> 
##  1 Other Genome … MGI:6903… Rr15647       1          3.05e6 3.05e6 NA     MGI   
##  2 Other Genome … MGI:6914… Rr26566       1          3.05e6 3.05e6 NA     MGI   
##  3 Other Genome … MGI:6914… Rr26567       1          3.05e6 3.05e6 NA     MGI   
##  4 Other Genome … MGI:6903… Rr15649       1          3.06e6 3.06e6 NA     MGI   
##  5 Other Genome … MGI:6914… Rr26568       1          3.06e6 3.06e6 NA     MGI   
##  6 Other Genome … MGI:6914… Rr26571       1          3.06e6 3.06e6 NA     MGI   
##  7 Other Genome … MGI:6903… Rr15664       1          3.08e6 3.08e6 NA     MGI   
##  8 Other Genome … MGI:6914… Rr26579       1          3.10e6 3.10e6 NA     MGI   
##  9 Other Genome … MGI:6924… Rr36329       1          3.12e6 3.12e6 NA     MGI   
## 10 Other Genome … MGI:6924… Rr36333       1          3.13e6 3.13e6 NA     MGI   
## # ℹ 290 more rows
## # ℹ 1 more variable: feature_type <fct>
…
