UniProtKB Swiss-Prot • mgi.report.reader
…
      Source: vignettes/articles/swiss_prot_ids.Rmd
      swiss_prot_ids.Rmd

The MGI report MRK_SwissProt.rpt provides associations
between MGI genetic markers and UniProtKB/Swiss-Prot identifiers.

To read this report using the key "swiss_prot_ids", use
the following code:

# To read all records (~ 17,000), use `read_report("swiss_prot_ids")`.
(assoc_to_swiss_ids <- read_report(report_key = "swiss_prot_ids", n_max = 150L))

## # A tibble: 150 × 7
##    marker_status marker_id  marker_symbol marker_name chromosome genetic_map_pos
##    <fct>         <chr>      <chr>         <chr>       <fct>                <dbl>
##  1 O             MGI:19150… 1110002E22Rik RIKEN cDNA… 3                    64.0 
##  2 O             MGI:19292… 1110004F10Rik RIKEN cDNA… 7                    61.4 
##  3 O             MGI:19159… 1110032F04Rik RIKEN cDNA… 3                    32.1 
##  4 O             MGI:21523… 1110038F14Rik RIKEN cDNA… 15                   36.3 
##  5 O             MGI:19134… 1110059E24Rik RIKEN cDNA… 19                   15.5 
##  6 O             MGI:19134… 1110059G10Rik RIKEN cDNA… 9                    73.3 
##  7 O             MGI:19161… 1110065P20Rik RIKEN cDNA… 4                    57.9 
##  8 O             MGI:19161… 1190005I06Rik RIKEN cDNA… 8                    69.9 
##  9 O             MGI:19170… 1500009L16Rik RIKEN cDNA… 10                   41.3 
## 10 O             MGI:19151… 1600012H06Rik RIKEN cDNA… 17                    8.95
## # ℹ 140 more rows
## # ℹ 1 more variable: swiss_prt_id <list>
…
